Null title                                                       Feff 8.20
POT  SCF  30  3.0000   0, core-hole, AFOLP (folp(0)= 1.150)
Abs   Z=58 Rmt= 1.714 Rnm= 1.797 L3 shell
Pot 1 Z=20 Rmt= 1.615 Rnm= 1.692
Pot 2 Z=15 Rmt= 0.936 Rnm= 1.146
Pot 3 Z= 8 Rmt= 0.929 Rnm= 1.037
Pot 4 Z= 9 Rmt= 1.064 Rnm= 1.137
Pot 5 Z=14 Rmt= 1.017 Rnm= 1.208
Gam_ch=3.270E+00 H-L exch
Mu=-8.114E+00 kf=2.334E+00 Vint=-1.886E+01 Rs_int= 1.554
PATH  Rmax= 6.000,  Keep_limit= 0.00, Heap_limit 0.00  Pwcrit= 2.50%
 S02  1.000                                        Global sig2  0.00000
 Debye-waller factor   0.000000000000000E+000  0.000000000000000E+000
 -----------------------------------------------------------------------
       k         chi           mag          phase        phase-2kr  @#
     0.0000   -5.471704E-03  5.474043E-03 -1.541565E+00 -1.541565E+00
     0.0500   -5.485378E-03  5.490707E-03 -1.526736E+00 -1.935080E+00
     0.1000   -5.497824E-03  5.507371E-03 -1.511907E+00 -2.328595E+00
     0.1500   -5.529379E-03  5.558977E-03 -1.467557E+00 -2.692589E+00
     0.2000   -5.549587E-03  5.610584E-03 -1.423206E+00 -3.056582E+00
     0.2500   -5.562203E-03  5.700706E-03 -1.349913E+00 -3.391633E+00
     0.3000   -5.542061E-03  5.790828E-03 -1.276620E+00 -3.726684E+00
     0.3500   -5.465625E-03  5.922588E-03 -1.175400E+00 -4.033808E+00
     0.4000   -5.322982E-03  6.054349E-03 -1.074180E+00 -4.340932E+00
     0.4500   -5.052890E-03  6.227157E-03 -9.465915E-01 -4.621688E+00
     0.5000   -4.674952E-03  6.399964E-03 -8.190031E-01 -4.902443E+00
     0.5500   -4.088407E-03  6.607117E-03 -6.671994E-01 -5.158984E+00
     0.6000   -3.358612E-03  6.814270E-03 -5.153957E-01 -5.415524E+00
     0.6500   -2.362412E-03  7.042677E-03 -3.420747E-01 -5.650547E+00
     0.7000   -1.221207E-03  7.271085E-03 -1.687537E-01 -5.885570E+00
     0.7500    1.724812E-04  7.503490E-03  2.298883E-02 -6.102172E+00
     0.8000    1.648403E-03  7.735896E-03  2.147313E-01 -6.318773E+00
     0.8500    3.255763E-03  7.954415E-03  4.216896E-01 -6.520159E+00
     0.9000    4.806107E-03  8.172933E-03  6.286479E-01 -6.721545E+00
     0.9500    6.270575E-03  8.362546E-03  8.478208E-01 -6.910716E+00
     1.0000    7.489581E-03  8.552159E-03  1.066994E+00 -7.099887E+00
     1.0500    8.375923E-03  8.702809E-03  1.295847E+00 -7.279378E+00
     1.1000    8.844055E-03  8.853459E-03  1.524701E+00 -7.458868E+00
     1.1500    8.798332E-03  8.960477E-03  1.761324E+00 -7.630589E+00
     1.2000    8.252776E-03  9.067494E-03  1.997948E+00 -7.802309E+00
     1.2500    7.155286E-03  9.130731E-03  2.241075E+00 -7.967526E+00
     1.3000    5.618006E-03  9.193967E-03  2.484202E+00 -8.132743E+00
     1.3500    3.660697E-03  9.216367E-03  2.733134E+00 -8.292155E+00
     1.4000    1.467585E-03  9.238766E-03  2.982066E+00 -8.451567E+00
     1.4500   -8.746548E-04  9.224959E-03  3.236549E+00 -8.605428E+00
     1.5000   -3.153635E-03  9.211152E-03  3.491032E+00 -8.759289E+00
     1.5500   -5.247847E-03  9.166419E-03  3.751154E+00 -8.907511E+00
     1.6000   -6.970103E-03  9.121686E-03  4.011276E+00 -9.055734E+00
     1.6500   -8.208218E-03  9.051311E-03  4.277351E+00 -9.198002E+00
     1.7000   -8.853045E-03  8.980936E-03  4.543426E+00 -9.340271E+00
     1.7500   -8.842269E-03  8.889882E-03  4.815933E+00 -9.476108E+00
     1.8000   -8.183985E-03  8.798828E-03  5.088440E+00 -9.611945E+00
     1.8500   -6.889790E-03  8.691698E-03  5.367982E+00 -9.740747E+00
     1.9000   -5.096738E-03  8.584567E-03  5.647525E+00 -9.869549E+00
     1.9500   -2.887589E-03  8.465289E-03  5.935089E+00 -9.990329E+00
     2.0000   -5.048982E-04  8.346010E-03  6.222653E+00 -1.011111E+01
     2.0500    1.993629E-03  8.188412E-03  6.529127E+00 -1.021298E+01
     2.1000    4.214131E-03  8.030815E-03  6.835601E+00 -1.031485E+01
     2.1500    5.960953E-03  7.873217E-03  7.142075E+00 -1.041672E+01
     2.2000    7.090130E-03  7.715619E-03  7.448549E+00 -1.051859E+01
     2.2500    7.513680E-03  7.541211E-03  7.768507E+00 -1.060697E+01
     2.3000    7.165206E-03  7.366803E-03  8.088465E+00 -1.069536E+01
     2.3500    6.114934E-03  7.192394E-03  8.408423E+00 -1.078375E+01
     2.4000    4.501740E-03  7.017986E-03  8.728381E+00 -1.087213E+01
     2.4500    2.427793E-03  6.812144E-03  9.060375E+00 -1.094848E+01
     2.5000    2.140728E-04  6.606302E-03  9.392368E+00 -1.102483E+01
     2.5500   -1.888918E-03  6.400460E-03  9.724361E+00 -1.110118E+01
     2.6000   -3.657414E-03  6.194618E-03  1.005635E+01 -1.117754E+01
     2.6500   -4.812315E-03  5.855781E-03  1.038935E+01 -1.125288E+01
     2.7000   -5.312294E-03  5.516943E-03  1.072235E+01 -1.132823E+01
     2.7500   -5.168859E-03  5.178106E-03  1.105534E+01 -1.140358E+01
     2.8000   -4.470775E-03  4.839269E-03  1.138834E+01 -1.147892E+01
     2.8500   -3.563839E-03  4.615921E-03  1.168427E+01 -1.159134E+01
     2.9000   -2.429864E-03  4.392574E-03  1.198020E+01 -1.170375E+01
     2.9500   -1.193168E-03  4.169227E-03  1.227613E+01 -1.181617E+01
     3.0000    2.243862E-05  3.945880E-03  1.257206E+01 -1.192858E+01
     3.0500    1.129894E-03  3.831008E-03  1.286576E+01 -1.204323E+01
     3.1000    2.077033E-03  3.716136E-03  1.315946E+01 -1.215787E+01
     3.1500    2.791140E-03  3.601264E-03  1.345316E+01 -1.227252E+01
     3.2000    3.224183E-03  3.486392E-03  1.374686E+01 -1.238716E+01
     3.2500    3.395794E-03  3.406676E-03  1.405722E+01 -1.248515E+01
     3.3000    3.239040E-03  3.326961E-03  1.436757E+01 -1.258313E+01
     3.3500    2.783909E-03  3.247245E-03  1.467793E+01 -1.268112E+01
     3.4000    2.087835E-03  3.167530E-03  1.498829E+01 -1.277910E+01
     3.4500    1.205325E-03  3.108439E-03  1.530976E+01 -1.286597E+01
     3.5000    2.337402E-04  3.049349E-03  1.563124E+01 -1.295285E+01
     3.5500   -7.245617E-04  2.990258E-03  1.595271E+01 -1.303972E+01
     3.6000   -1.572399E-03  2.931168E-03  1.627418E+01 -1.312659E+01
     3.6500   -2.252288E-03  2.880622E-03  1.660563E+01 -1.320348E+01
     3.7000   -2.666484E-03  2.830077E-03  1.693709E+01 -1.328037E+01
     3.7500   -2.779386E-03  2.779531E-03  1.726854E+01 -1.335726E+01
     3.8000   -2.589389E-03  2.728986E-03  1.759999E+01 -1.343415E+01
     3.8500   -2.121146E-03  2.683832E-03  1.793819E+01 -1.350430E+01
     3.9000   -1.430955E-03  2.638678E-03  1.827638E+01 -1.357445E+01
     3.9500   -6.038256E-04  2.593524E-03  1.861458E+01 -1.364460E+01
     4.0000    2.625721E-04  2.548370E-03  1.895277E+01 -1.371475E+01
     4.0500    1.081465E-03  2.505825E-03  1.929580E+01 -1.378007E+01
     4.1000    1.748532E-03  2.463279E-03  1.963883E+01 -1.384539E+01
     4.1500    2.191705E-03  2.420733E-03  1.998185E+01 -1.391070E+01
     4.2000    2.367356E-03  2.378187E-03  2.032488E+01 -1.397602E+01
     4.2500    2.263713E-03  2.336428E-03  2.067049E+01 -1.403875E+01
     4.3000    1.899355E-03  2.294669E-03  2.101611E+01 -1.410148E+01
     4.3500    1.326246E-03  2.252909E-03  2.136172E+01 -1.416421E+01
     4.4000    6.191596E-04  2.211150E-03  2.170734E+01 -1.422694E+01
     4.4500   -1.368972E-04  2.171884E-03  2.205422E+01 -1.428840E+01
     4.5000   -8.500001E-04  2.132617E-03  2.240111E+01 -1.434986E+01
     4.5500   -1.437358E-03  2.093351E-03  2.274799E+01 -1.441131E+01
     4.6000   -1.834077E-03  2.054084E-03  2.309488E+01 -1.447277E+01
     4.6500   -2.001403E-03  2.015896E-03  2.344196E+01 -1.453404E+01
     4.7000   -1.926929E-03  1.977708E-03  2.378904E+01 -1.459530E+01
     4.7500   -1.628495E-03  1.939521E-03  2.413612E+01 -1.465656E+01
     4.8000   -1.149955E-03  1.901333E-03  2.448321E+01 -1.471782E+01
     4.8500   -5.542514E-04  1.865640E-03  2.483110E+01 -1.477827E+01
     4.9000    8.462305E-05  1.829947E-03  2.517900E+01 -1.483871E+01
     4.9500    6.890474E-04  1.794254E-03  2.552690E+01 -1.489916E+01
     5.0000    1.188442E-03  1.758562E-03  2.587480E+01 -1.495961E+01
     5.0500    1.530853E-03  1.726234E-03  2.622315E+01 -1.501960E+01
     5.1000    1.679164E-03  1.693907E-03  2.657151E+01 -1.507958E+01
     5.1500    1.622853E-03  1.661580E-03  2.691986E+01 -1.513957E+01
     5.2000    1.376325E-03  1.629252E-03  2.726822E+01 -1.519956E+01
     5.2500    9.753601E-04  1.599083E-03  2.761834E+01 -1.525779E+01
     5.3000    4.724512E-04  1.568914E-03  2.796845E+01 -1.531601E+01
     5.3500   -6.804659E-05  1.538745E-03  2.831857E+01 -1.537424E+01
     5.4000   -5.796118E-04  1.508576E-03  2.866869E+01 -1.543247E+01
     5.4500   -1.005625E-03  1.481376E-03  2.902052E+01 -1.548898E+01
     5.5000   -1.294666E-03  1.454176E-03  2.937236E+01 -1.554549E+01
     5.5500   -1.416553E-03  1.426975E-03  2.972419E+01 -1.560199E+01
     5.6000   -1.362627E-03  1.399775E-03  3.007603E+01 -1.565850E+01
     5.6500   -1.145938E-03  1.374647E-03  3.043029E+01 -1.571259E+01
     5.7000   -7.965603E-04  1.349518E-03  3.078455E+01 -1.576667E+01
     5.7500   -3.623273E-04  1.324390E-03  3.113881E+01 -1.582075E+01
     5.8000    1.001357E-04  1.299261E-03  3.149307E+01 -1.587483E+01
     5.8500    5.362658E-04  1.275957E-03  3.184969E+01 -1.592657E+01
     5.9000    8.901535E-04  1.252653E-03  3.220630E+01 -1.597830E+01
     5.9500    1.120585E-03  1.229349E-03  3.256291E+01 -1.603003E+01
     6.0000    1.203322E-03  1.206044E-03  3.291952E+01 -1.608176E+01
     6.0500    1.134704E-03  1.185243E-03  3.327980E+01 -1.612983E+01
     6.1000    9.246260E-04  1.164441E-03  3.364007E+01 -1.617790E+01
     6.1500    6.047402E-04  1.143639E-03  3.400035E+01 -1.622597E+01
     6.2000    2.196536E-04  1.122837E-03  3.436063E+01 -1.627403E+01
     6.2500   -1.792535E-04  1.102036E-03  3.472090E+01 -1.632210E+01
     6.3000   -5.406730E-04  1.081234E-03  3.508118E+01 -1.637017E+01
     6.3500   -8.199685E-04  1.060432E-03  3.544145E+01 -1.641824E+01
     6.4000   -9.846789E-04  1.039630E-03  3.580173E+01 -1.646631E+01
     6.4500   -1.018251E-03  1.018829E-03  3.616201E+01 -1.651437E+01
     6.5000   -9.215719E-04  9.980270E-04  3.652228E+01 -1.656244E+01
     6.5500   -7.126524E-04  9.807333E-04  3.688567E+01 -1.660739E+01
     6.6000   -4.191012E-04  9.634396E-04  3.724907E+01 -1.665234E+01
     6.6500   -8.188193E-05  9.461459E-04  3.761246E+01 -1.669730E+01
     6.7000    2.537838E-04  9.288522E-04  3.797585E+01 -1.674225E+01
     6.7500    5.444773E-04  9.115586E-04  3.833925E+01 -1.678720E+01
     6.8000    7.541979E-04  8.942649E-04  3.870264E+01 -1.683215E+01
     6.8500    8.588085E-04  8.769712E-04  3.906603E+01 -1.687710E+01
     6.9000    8.487631E-04  8.596775E-04  3.942943E+01 -1.692205E+01
     6.9500    7.298155E-04  8.423838E-04  3.979282E+01 -1.696700E+01
     7.0000    5.216882E-04  8.250902E-04  4.015621E+01 -1.701195E+01
     7.0500    2.549212E-04  8.114344E-04  4.052113E+01 -1.705538E+01
     7.1000   -3.616428E-05  7.977786E-04  4.088605E+01 -1.709880E+01
     7.1500   -3.127503E-04  7.841228E-04  4.125097E+01 -1.714223E+01
     7.2000   -5.392107E-04  7.704670E-04  4.161589E+01 -1.718565E+01
     7.2500   -6.876976E-04  7.568112E-04  4.198081E+01 -1.722907E+01
     7.3000   -7.415486E-04  7.431554E-04  4.234573E+01 -1.727250E+01
     7.3500   -6.971007E-04  7.294996E-04  4.271065E+01 -1.731592E+01
     7.4000   -5.637204E-04  7.158438E-04  4.307557E+01 -1.735935E+01
     7.4500   -3.621080E-04  7.021880E-04  4.344049E+01 -1.740277E+01
     7.5000   -1.211586E-04  6.885322E-04  4.380541E+01 -1.744620E+01
     7.5500    1.278317E-04  6.780982E-04  4.417195E+01 -1.748800E+01
     7.6000    3.524944E-04  6.676641E-04  4.453848E+01 -1.752981E+01
     7.6500    5.239760E-04  6.572300E-04  4.490502E+01 -1.757162E+01
     7.7000    6.213317E-04  6.467959E-04  4.527156E+01 -1.761342E+01
     7.7500    6.340642E-04  6.363618E-04  4.563810E+01 -1.765523E+01
     7.8000    5.631950E-04  6.259278E-04  4.600463E+01 -1.769704E+01
     7.8500    4.207675E-04  6.154937E-04  4.637117E+01 -1.773884E+01
     7.9000    2.278984E-04  6.050596E-04  4.673771E+01 -1.778065E+01
     7.9500    1.168064E-05  5.946255E-04  4.710424E+01 -1.782246E+01
     8.0000   -1.986116E-04  5.841914E-04  4.747078E+01 -1.786426E+01
     8.0500   -3.779982E-04  5.762152E-04  4.783940E+01 -1.790399E+01
     8.1000   -5.022636E-04  5.682389E-04  4.820802E+01 -1.794372E+01
     8.1500   -5.563631E-04  5.602627E-04  4.857663E+01 -1.798345E+01
     8.2000   -5.350401E-04  5.522864E-04  4.894525E+01 -1.802317E+01
     8.2500   -4.432614E-04  5.443102E-04  4.931387E+01 -1.806290E+01
     8.3000   -2.952680E-04  5.363339E-04  4.968248E+01 -1.810263E+01
     8.3500   -1.124049E-04  5.283577E-04  5.005110E+01 -1.814235E+01
     8.4000    7.994292E-05  5.203814E-04  5.041972E+01 -1.818208E+01
     8.4500    2.558708E-04  5.124052E-04  5.078833E+01 -1.822181E+01
     8.5000    3.924432E-04  5.044289E-04  5.115695E+01 -1.826154E+01
     8.5500    4.745104E-04  4.980402E-04  5.152766E+01 -1.829917E+01
     8.6000    4.907038E-04  4.916515E-04  5.189838E+01 -1.833680E+01
     8.6500    4.405165E-04  4.852627E-04  5.226909E+01 -1.837443E+01
     8.7000    3.324214E-04  4.788740E-04  5.263980E+01 -1.841206E+01
     8.7500    1.824949E-04  4.724853E-04  5.301052E+01 -1.844969E+01
     8.8000    1.204412E-05  4.660966E-04  5.338123E+01 -1.848732E+01
     8.8500   -1.554155E-04  4.597078E-04  5.375195E+01 -1.852495E+01
     8.9000   -2.974037E-04  4.533191E-04  5.412266E+01 -1.856258E+01
     8.9500   -3.954924E-04  4.469304E-04  5.449337E+01 -1.860021E+01
     9.0000   -4.376929E-04  4.405417E-04  5.486409E+01 -1.863784E+01
     9.0500   -4.205712E-04  4.350700E-04  5.523676E+01 -1.867351E+01
     9.1000   -3.467310E-04  4.295983E-04  5.560944E+01 -1.870918E+01
     9.1500   -2.276418E-04  4.241266E-04  5.598211E+01 -1.874485E+01
     9.2000   -8.066243E-05  4.186550E-04  5.635478E+01 -1.878052E+01
     9.2500    7.348088E-05  4.131833E-04  5.672746E+01 -1.881619E+01
     9.3000    2.136152E-04  4.077116E-04  5.710013E+01 -1.885186E+01
     9.3500    3.210292E-04  4.022400E-04  5.747281E+01 -1.888753E+01
     9.4000    3.819695E-04  3.967683E-04  5.784548E+01 -1.892319E+01
     9.4500    3.893924E-04  3.912966E-04  5.821816E+01 -1.895886E+01
     9.5000    3.437497E-04  3.858250E-04  5.859083E+01 -1.899453E+01
     9.5500    2.525403E-04  3.808944E-04  5.896542E+01 -1.902830E+01
     9.6000    1.290098E-04  3.759638E-04  5.934000E+01 -1.906206E+01
     9.6500   -9.022690E-06  3.710332E-04  5.971458E+01 -1.909582E+01
     9.7000   -1.421969E-04  3.661026E-04  6.008916E+01 -1.912958E+01
     9.7500   -2.523266E-04  3.611720E-04  6.046375E+01 -1.916334E+01
     9.8000   -3.248825E-04  3.562414E-04  6.083833E+01 -1.919710E+01
     9.8500   -3.509037E-04  3.513108E-04  6.121291E+01 -1.923086E+01
     9.9000   -3.280883E-04  3.463802E-04  6.158749E+01 -1.926463E+01
     9.9500   -2.609310E-04  3.414496E-04  6.196207E+01 -1.929839E+01
    10.0000   -1.599151E-04  3.365190E-04  6.233666E+01 -1.933215E+01
    10.0500   -3.934983E-05  3.325135E-04  6.271323E+01 -1.936392E+01
    10.1000    8.380477E-05  3.285080E-04  6.308981E+01 -1.939568E+01
    10.1500    1.923663E-04  3.245025E-04  6.346639E+01 -1.942745E+01
    10.2000    2.715966E-04  3.204970E-04  6.384297E+01 -1.945922E+01
    10.2500    3.112006E-04  3.164915E-04  6.421954E+01 -1.949098E+01
    10.3000    3.066559E-04  3.124860E-04  6.459612E+01 -1.952275E+01
    10.3500    2.597020E-04  3.084805E-04  6.497270E+01 -1.955452E+01
    10.4000    1.779428E-04  3.044750E-04  6.534927E+01 -1.958628E+01
    10.4500    7.363668E-05  3.004695E-04  6.572585E+01 -1.961805E+01
    10.5000   -3.813289E-05  2.964640E-04  6.610243E+01 -1.964982E+01
    10.5500   -1.416369E-04  2.924584E-04  6.647901E+01 -1.968159E+01
    10.6000   -2.227142E-04  2.884529E-04  6.685558E+01 -1.971335E+01
    10.6500   -2.707076E-04  2.844474E-04  6.723216E+01 -1.974512E+01
    10.7000   -2.798588E-04  2.804419E-04  6.760874E+01 -1.977689E+01
    10.7500   -2.499799E-04  2.764364E-04  6.798531E+01 -1.980865E+01
    10.8000   -1.863258E-04  2.724309E-04  6.836189E+01 -1.984042E+01
    10.8500   -9.870877E-05  2.684254E-04  6.873847E+01 -1.987219E+01
    10.9000    1.996681E-09  2.644199E-04  6.911505E+01 -1.990395E+01
    10.9500    9.576651E-05  2.604144E-04  6.949162E+01 -1.993572E+01
    11.0000    1.753706E-04  2.564089E-04  6.986820E+01 -1.996749E+01
    11.0500    2.298589E-04  2.538840E-04  7.024729E+01 -1.999674E+01
    11.1000    2.509150E-04  2.513592E-04  7.062638E+01 -2.002600E+01
    11.1500    2.362313E-04  2.488343E-04  7.100546E+01 -2.005526E+01
    11.2000    1.885912E-04  2.463095E-04  7.138455E+01 -2.008451E+01
    11.2500    1.153741E-04  2.437846E-04  7.176364E+01 -2.011377E+01
    11.3000    2.742068E-05  2.412598E-04  7.214273E+01 -2.014302E+01
    11.3500   -6.256967E-05  2.387349E-04  7.252182E+01 -2.017228E+01
    11.4000   -1.418720E-04  2.362101E-04  7.290090E+01 -2.020154E+01
    11.4500   -1.995351E-04  2.336852E-04  7.327999E+01 -2.023079E+01
    11.5000   -2.278925E-04  2.311604E-04  7.365908E+01 -2.026005E+01
    11.5500   -2.235772E-04  2.286355E-04  7.403817E+01 -2.028930E+01
    11.6000   -1.879060E-04  2.261107E-04  7.441726E+01 -2.031856E+01
    11.6500   -1.265925E-04  2.235858E-04  7.479635E+01 -2.034782E+01
    11.7000   -4.884386E-05  2.210610E-04  7.517543E+01 -2.037707E+01
    11.7500    3.401777E-05  2.185361E-04  7.555452E+01 -2.040633E+01
    11.8000    1.102031E-04  2.160113E-04  7.593361E+01 -2.043558E+01
    11.8500    1.691328E-04  2.134864E-04  7.631270E+01 -2.046484E+01
    11.9000    2.029062E-04  2.109616E-04  7.669179E+01 -2.049410E+01
    11.9500    2.073565E-04  2.084367E-04  7.707087E+01 -2.052335E+01
    12.0000    1.825532E-04  2.059119E-04  7.744996E+01 -2.055261E+01
    12.0500    1.326489E-04  2.039150E-04  7.783156E+01 -2.057935E+01
    12.1000    6.479156E-05  2.019181E-04  7.821316E+01 -2.060610E+01
    12.1500   -1.097794E-05  1.999212E-04  7.859476E+01 -2.063285E+01
    12.2000   -8.368311E-05  1.979243E-04  7.897635E+01 -2.065959E+01
    12.2500   -1.430019E-04  1.959274E-04  7.935795E+01 -2.068634E+01
    12.3000   -1.807320E-04  1.939305E-04  7.973955E+01 -2.071308E+01
    12.3500   -1.919230E-04  1.919336E-04  8.012115E+01 -2.073983E+01
    12.4000   -1.755199E-04  1.899368E-04  8.050274E+01 -2.076658E+01
    12.4500   -1.344351E-04  1.879399E-04  8.088434E+01 -2.079332E+01
    12.5000   -7.505006E-05  1.859430E-04  8.126594E+01 -2.082007E+01
    12.5500   -6.229186E-06  1.839461E-04  8.164754E+01 -2.084681E+01
    12.6000    6.200136E-05  1.819492E-04  8.202914E+01 -2.087356E+01
    12.6500    1.199142E-04  1.799523E-04  8.241073E+01 -2.090031E+01
    12.7000    1.594674E-04  1.779554E-04  8.279233E+01 -2.092705E+01
    12.7500    1.754198E-04  1.759586E-04  8.317393E+01 -2.095380E+01
    12.8000    1.660202E-04  1.739617E-04  8.355553E+01 -2.098055E+01
    12.8500    1.331815E-04  1.719648E-04  8.393713E+01 -2.100729E+01
    12.9000    8.212433E-05  1.699679E-04  8.431872E+01 -2.103404E+01
    12.9500    2.055508E-05  1.679710E-04  8.470032E+01 -2.106078E+01
    13.0000   -4.249508E-05  1.659741E-04  8.508192E+01 -2.108753E+01
    13.0500   -9.834943E-05  1.643940E-04  8.546432E+01 -2.111347E+01
    13.1000   -1.390514E-04  1.628138E-04  8.584673E+01 -2.113941E+01
    13.1500   -1.590527E-04  1.612337E-04  8.622913E+01 -2.116535E+01
    13.2000   -1.558841E-04  1.596536E-04  8.661153E+01 -2.119129E+01
    13.2500   -1.304513E-04  1.580734E-04  8.699394E+01 -2.121723E+01
    13.3000   -8.683975E-05  1.564933E-04  8.737634E+01 -2.124317E+01
    13.3500   -3.166441E-05  1.549132E-04  8.775874E+01 -2.126912E+01
    13.4000    2.693077E-05  1.533330E-04  8.814115E+01 -2.129506E+01
    13.4500    8.047463E-05  1.517529E-04  8.852355E+01 -2.132100E+01
    13.5000    1.213934E-04  1.501728E-04  8.890595E+01 -2.134694E+01
    13.5500    1.440816E-04  1.485926E-04  8.928836E+01 -2.137288E+01
    13.6000    1.456676E-04  1.470125E-04  8.967076E+01 -2.139882E+01
    13.6500    1.263697E-04  1.454324E-04  9.005316E+01 -2.142476E+01
    13.7000    8.940024E-05  1.438522E-04  9.043557E+01 -2.145070E+01
    13.7500    4.043999E-05  1.422721E-04  9.081797E+01 -2.147664E+01
    13.8000   -1.323157E-05  1.406920E-04  9.120037E+01 -2.150258E+01
    13.8500   -6.381767E-05  1.391118E-04  9.158278E+01 -2.152852E+01
    13.9000   -1.041369E-04  1.375317E-04  9.196518E+01 -2.155446E+01
    13.9500   -1.286423E-04  1.359516E-04  9.234758E+01 -2.158040E+01
    14.0000   -1.341827E-04  1.343714E-04  9.272999E+01 -2.160634E+01
    14.0500   -1.206647E-04  1.332530E-04  9.311515E+01 -2.162952E+01
    14.1000   -8.982280E-05  1.321345E-04  9.350031E+01 -2.165271E+01
    14.1500   -4.643587E-05  1.310161E-04  9.388548E+01 -2.167589E+01
    14.2000    2.969250E-06  1.298976E-04  9.427064E+01 -2.169907E+01
    14.2500    5.109908E-05  1.287792E-04  9.465580E+01 -2.172225E+01
    14.3000    9.097014E-05  1.276607E-04  9.504097E+01 -2.174543E+01
    14.3500    1.169221E-04  1.265422E-04  9.542613E+01 -2.176861E+01
    14.4000    1.254205E-04  1.254238E-04  9.581129E+01 -2.179179E+01
    14.4500    1.155354E-04  1.243053E-04  9.619646E+01 -2.181497E+01
    14.5000    8.903141E-05  1.231869E-04  9.658162E+01 -2.183815E+01
    14.5500    5.006289E-05  1.220684E-04  9.696678E+01 -2.186133E+01
    14.6000    4.525361E-06  1.209499E-04  9.735195E+01 -2.188451E+01
    14.6500   -4.083541E-05  1.198315E-04  9.773711E+01 -2.190769E+01
    14.7000   -7.942260E-05  1.187130E-04  9.812228E+01 -2.193087E+01
    14.7500   -1.057477E-04  1.175946E-04  9.850744E+01 -2.195405E+01
    14.8000   -1.162103E-04  1.164761E-04  9.889260E+01 -2.197723E+01
    14.8500   -1.095884E-04  1.153577E-04  9.927777E+01 -2.200041E+01
    14.9000   -8.717143E-05  1.142392E-04  9.966293E+01 -2.202359E+01
    14.9500   -5.252473E-05  1.131207E-04  1.000481E+02 -2.204677E+01
    15.0000   -1.092613E-05  1.120023E-04  1.004333E+02 -2.206995E+01
    15.0500    3.154881E-05  1.110966E-04  1.008189E+02 -2.209265E+01
    15.1000    6.873624E-05  1.101909E-04  1.012046E+02 -2.211535E+01
    15.1500    9.529449E-05  1.092852E-04  1.015902E+02 -2.213805E+01
    15.2000    1.075214E-04  1.083795E-04  1.019758E+02 -2.216074E+01
    15.2500    1.038690E-04  1.074738E-04  1.023615E+02 -2.218344E+01
    15.3000    8.513439E-05  1.065681E-04  1.027471E+02 -2.220614E+01
    15.3500    5.430424E-05  1.056624E-04  1.031328E+02 -2.222883E+01
    15.4000    1.608187E-05  1.047567E-04  1.035184E+02 -2.225153E+01
    15.4500   -2.382946E-05  1.038510E-04  1.039041E+02 -2.227423E+01
    15.5000   -5.957730E-05  1.029453E-04  1.042897E+02 -2.229693E+01
    15.5500   -8.601819E-05  1.020396E-04  1.046754E+02 -2.231962E+01
    15.6000   -9.945739E-05  1.011339E-04  1.050610E+02 -2.234232E+01
    15.6500   -9.816380E-05  1.002282E-04  1.054467E+02 -2.236502E+01
    15.7000   -8.258857E-05  9.932248E-05  1.058323E+02 -2.238771E+01
    15.7500   -5.526045E-05  9.841678E-05  1.062180E+02 -2.241041E+01
    15.8000   -2.037898E-05  9.751108E-05  1.066036E+02 -2.243311E+01
    15.8500    1.682961E-05  9.660538E-05  1.069893E+02 -2.245581E+01
    15.9000    5.089516E-05  9.569968E-05  1.073749E+02 -2.247850E+01
    15.9500    7.690773E-05  9.479398E-05  1.077605E+02 -2.250120E+01
    16.0000    9.122503E-05  9.388828E-05  1.081462E+02 -2.252390E+01
    16.0500    9.226321E-05  9.326861E-05  1.085319E+02 -2.254653E+01
    16.1000    7.981246E-05  9.264894E-05  1.089176E+02 -2.256916E+01
    16.1500    5.587081E-05  9.202926E-05  1.093033E+02 -2.259178E+01
    16.2000    2.408997E-05  9.140959E-05  1.096891E+02 -2.261441E+01
    16.2500   -1.078088E-05  9.078992E-05  1.100748E+02 -2.263704E+01
    16.3000   -4.360461E-05  9.017024E-05  1.104605E+02 -2.265967E+01
    16.3500   -6.961292E-05  8.955057E-05  1.108462E+02 -2.268230E+01
    16.4000   -8.509896E-05  8.893090E-05  1.112319E+02 -2.270493E+01
    16.4500   -8.794510E-05  8.831122E-05  1.116176E+02 -2.272756E+01
    16.5000   -7.791095E-05  8.769155E-05  1.120033E+02 -2.275019E+01
    16.5500   -5.664250E-05  8.707188E-05  1.123891E+02 -2.277282E+01
    16.6000   -2.740509E-05  8.645220E-05  1.127748E+02 -2.279545E+01
    16.6500    5.417015E-06  8.583253E-05  1.131605E+02 -2.281807E+01
    16.7000    3.697780E-05  8.521285E-05  1.135462E+02 -2.284070E+01
    16.7500    6.268497E-05  8.459318E-05  1.139319E+02 -2.286333E+01
    16.8000    7.886807E-05  8.397351E-05  1.143176E+02 -2.288596E+01
    16.8500    8.330215E-05  8.335383E-05  1.147033E+02 -2.290859E+01
    16.9000    7.551217E-05  8.273416E-05  1.150891E+02 -2.293122E+01
    16.9500    5.681691E-05  8.211449E-05  1.154748E+02 -2.295385E+01
    17.0000    3.010957E-05  8.149481E-05  1.158605E+02 -2.297648E+01
    17.0500   -7.935872E-07  8.110844E-05  1.162487E+02 -2.299660E+01
    17.1000   -3.128613E-05  8.072206E-05  1.166369E+02 -2.301673E+01
    17.1500   -5.685269E-05  8.033569E-05  1.170252E+02 -2.303685E+01
    17.2000   -7.375118E-05  7.994932E-05  1.174134E+02 -2.305698E+01
    17.2500   -7.956031E-05  7.956294E-05  1.178016E+02 -2.307710E+01
    17.3000   -7.352607E-05  7.917657E-05  1.181898E+02 -2.309723E+01
    17.3500   -5.665743E-05  7.879019E-05  1.185780E+02 -2.311735E+01
    17.4000   -3.155971E-05  7.840382E-05  1.189662E+02 -2.313748E+01
    17.4500   -2.032724E-06  7.801745E-05  1.193545E+02 -2.315761E+01
    17.5000    2.750438E-05  7.763107E-05  1.197427E+02 -2.317773E+01
    17.5500    5.267445E-05  7.724470E-05  1.201309E+02 -2.319786E+01
    17.6000    6.979101E-05  7.685833E-05  1.205191E+02 -2.321798E+01
    17.6500    7.639801E-05  7.647195E-05  1.209073E+02 -2.323811E+01
    17.7000    7.162180E-05  7.608558E-05  1.212956E+02 -2.325823E+01
    17.7500    5.628481E-05  7.569920E-05  1.216838E+02 -2.327836E+01
    17.8000    3.276653E-05  7.531283E-05  1.220720E+02 -2.329848E+01
    17.8500    4.634972E-06  7.492646E-05  1.224602E+02 -2.331861E+01
    17.9000   -2.389445E-05  7.454008E-05  1.228484E+02 -2.333873E+01
    17.9500   -4.859058E-05  7.415371E-05  1.232367E+02 -2.335886E+01
    18.0000   -6.583398E-05  7.376734E-05  1.236249E+02 -2.337898E+01
    18.0500   -7.325014E-05  7.348159E-05  1.240135E+02 -2.339868E+01
    18.1000   -6.972334E-05  7.319584E-05  1.244022E+02 -2.341837E+01
    18.1500   -5.586271E-05  7.291009E-05  1.247908E+02 -2.343806E+01
    18.2000   -3.380892E-05  7.262433E-05  1.251795E+02 -2.345776E+01
    18.2500   -6.903960E-06  7.233858E-05  1.255681E+02 -2.347745E+01
    18.3000    2.081520E-05  7.205283E-05  1.259568E+02 -2.349715E+01
    18.3500    4.522230E-05  7.176708E-05  1.263454E+02 -2.351684E+01
    18.4000    6.271600E-05  7.148133E-05  1.267341E+02 -2.353653E+01
    18.4500    7.075125E-05  7.119558E-05  1.271227E+02 -2.355623E+01
    18.5000    6.820929E-05  7.090983E-05  1.275114E+02 -2.357592E+01
    18.5500    5.555261E-05  7.062408E-05  1.279000E+02 -2.359561E+01
    18.6000    3.474358E-05  7.033833E-05  1.282887E+02 -2.361531E+01
    18.6500    8.940602E-06  7.005258E-05  1.286773E+02 -2.363500E+01
    18.7000   -1.798114E-05  6.976683E-05  1.290660E+02 -2.365470E+01
    18.7500   -4.201162E-05  6.948108E-05  1.294546E+02 -2.367439E+01
    18.8000   -5.960327E-05  6.919533E-05  1.298433E+02 -2.369408E+01
    18.8500   -6.819466E-05  6.890958E-05  1.302319E+02 -2.371378E+01
    18.9000   -6.658320E-05  6.862383E-05  1.306206E+02 -2.373347E+01
    18.9500   -5.509281E-05  6.833807E-05  1.310092E+02 -2.375317E+01
    19.0000   -3.551305E-05  6.805232E-05  1.313979E+02 -2.377286E+01
    19.0500   -1.084662E-05  6.783913E-05  1.317863E+02 -2.379276E+01
    19.1000    1.527652E-05  6.762594E-05  1.321748E+02 -2.381267E+01
    19.1500    3.896617E-05  6.741275E-05  1.325632E+02 -2.383257E+01
    19.2000    5.671814E-05  6.719956E-05  1.329516E+02 -2.385247E+01
    19.2500    6.593259E-05  6.698636E-05  1.333401E+02 -2.387238E+01
    19.3000    6.529464E-05  6.677317E-05  1.337285E+02 -2.389228E+01
    19.3500    5.496169E-05  6.655998E-05  1.341170E+02 -2.391218E+01
    19.4000    3.653061E-05  6.634679E-05  1.345054E+02 -2.393209E+01
    19.4500    1.279134E-05  6.613360E-05  1.348938E+02 -2.395199E+01
    19.5000   -1.269539E-05  6.592040E-05  1.352823E+02 -2.397189E+01
    19.5500   -3.613205E-05  6.570721E-05  1.356707E+02 -2.399180E+01
    19.6000   -5.405020E-05  6.549402E-05  1.360592E+02 -2.401170E+01
    19.6500   -6.382376E-05  6.528083E-05  1.364476E+02 -2.403160E+01
    19.7000   -6.405374E-05  6.506764E-05  1.368360E+02 -2.405151E+01
    19.7500   -5.476821E-05  6.485444E-05  1.372245E+02 -2.407141E+01
    19.8000   -3.740879E-05  6.464125E-05  1.376129E+02 -2.409131E+01
    19.8500   -1.460722E-05  6.442806E-05  1.380014E+02 -2.411122E+01
    19.9000    1.021352E-05  6.421487E-05  1.383898E+02 -2.413112E+01
    19.9500    3.335303E-05  6.400168E-05  1.387782E+02 -2.415102E+01
    20.0000    5.138515E-05  6.378848E-05  1.391667E+02 -2.417093E+01
